# MagicaVoxel @ Ephtracy

# group
o 

# material
mtllib edo.mtl
usemtl palette

# normals
vn -1 0 0
vn 1 0 0
vn 0 0 1
vn 0 0 -1
vn 0 -1 0
vn 0 1 0

# texcoords
vt 0.00195313 0.5
vt 0.0253906 0.5
vt 0.533203 0.5
vt 0.982422 0.5

# verts
v 0 2 0
v 0 2 -4
v 0 2.1 0
v 0 2.1 -4
v 0.1 2.4 -0.1
v 0.1 2.4 -3.9
v 0.1 2.5 -0.1
v 0.1 2.5 -3.9
v 0.2 2.1 -0.2
v 0.2 2.1 -3.8
v 0.2 2.4 -0.2
v 0.2 2.4 -3.8
v 0.4 2.5 -0.5
v 0.4 2.5 -3.6
v 0.4 2.6 -0.5
v 0.4 2.6 -3.6
v 0.9 2.1 -3.2
v 0.9 2.1 -3.3
v 0.9 2.4 -3.2
v 0.9 2.4 -3.3
v 1 2.5 -1.5
v 1 2.5 -2.9
v 1 2.5 -3.1
v 1 2.5 -3.3
v 1 2.6 -1.5
v 1 2.6 -2.9
v 1 2.7 -3.1
v 1 2.7 -3.3
v 1.1 2.1 -1.6
v 1.1 2.1 -2.9
v 1.1 2.4 -1.6
v 1.1 2.4 -2.9
v 1.1 2.4 -3.2
v 1.1 2.4 -3.3
v 1.1 2.5 -3.2
v 1.1 2.5 -3.3
v 1.1 2.6 -1.6
v 1.1 2.6 -2.8
v 1.1 2.7 -1.6
v 1.1 2.7 -2.8
v 1.1 2.7 -3
v 1.1 2.7 -3.1
v 1.1 2.7 -3.3
v 1.1 2.8 -1.6
v 1.1 2.8 -2.8
v 1.1 2.8 -3
v 1.1 2.8 -3.3
v 1.1 2.9 -1.6
v 1.1 2.9 -2.8
v 1.2 2.8 -3.1
v 1.2 2.8 -3.3
v 1.2 2.9 -3.2
v 1.2 2.9 -3.3
v 1.2 3 -3.1
v 1.2 3 -3.2
v 1.3 2.4 -1.8
v 1.3 2.4 -2.6
v 1.3 2.5 -1.8
v 1.3 2.5 -2.6
v 1.3 2.5 -3
v 1.3 2.5 -3.1
v 1.3 2.7 -1.8
v 1.3 2.7 -2.6
v 1.3 2.7 -3
v 1.3 2.7 -3.1
v 1.3 2.8 -1.8
v 1.3 2.8 -2.6
v 1.3 2.9 -1.8
v 1.3 2.9 -2.6
v 1.3 3 -1.8
v 1.3 3 -2.6
v 1.3 3.3 -1.8
v 1.3 3.3 -2.6
v 1.3 3.4 -1.8
v 1.3 3.4 -2.6
v 1.4 3 -1.9
v 1.4 3 -2.5
v 1.4 3.3 -1.9
v 1.4 3.3 -2.5
v 1.4 3.4 -1.9
v 1.4 3.4 -2.5
v 1.4 3.5 -1.9
v 1.4 3.5 -2.5
v 1.5 3.3 -2
v 1.5 3.3 -2.4
v 1.5 3.4 -2
v 1.5 3.4 -2.4
v 1.7 3.5 -2
v 1.7 3.5 -2.4
v 1.7 3.6 -2
v 1.7 3.6 -2.4
v 1.8 3.6 -2.1
v 1.8 3.6 -2.3
v 1.8 3.7 -2.1
v 1.8 3.7 -2.3
v 2.4 3.3 -1.9
v 2.4 3.3 -2.5
v 2.4 3.4 -1.9
v 2.4 3.4 -2.5
v 3.5 2.1 -0.6
v 3.5 2.1 -3.5
v 3.5 2.4 -0.6
v 3.5 2.4 -3.5
v 3.5 2.6 -0.6
v 3.5 2.6 -3.5
v 0.4 2.1 -0.6
v 0.4 2.1 -3.5
v 0.4 2.3 -0.6
v 0.4 2.3 -3.5
v 0.5 2.3 -0.6
v 0.5 2.3 -3.5
v 0.5 2.4 -0.6
v 0.5 2.4 -3.5
v 0.5 2.6 -0.6
v 0.5 2.6 -3.5
v 1 2.1 -3.2
v 1 2.1 -3.3
v 1 2.3 -3.2
v 1 2.3 -3.3
v 1.2 2.3 -3.2
v 1.2 2.3 -3.3
v 1.2 2.4 -3.2
v 1.2 2.4 -3.3
v 1.3 2.3 -2.8
v 1.3 2.3 -2.9
v 1.3 2.4 -2.8
v 1.3 2.4 -2.9
v 1.3 2.4 -3.2
v 1.3 2.4 -3.3
v 1.3 2.5 -3.2
v 1.3 2.5 -3.3
v 1.3 2.8 -3.2
v 1.3 2.8 -3.3
v 1.3 2.9 -3.1
v 1.3 2.9 -3.2
v 1.3 2.9 -3.3
v 1.3 3 -3.1
v 1.3 3 -3.2
v 1.4 2.5 -3
v 1.4 2.5 -3.3
v 1.4 2.6 -3.2
v 1.4 2.6 -3.3
v 1.4 2.7 -3
v 1.4 2.7 -3.1
v 1.4 2.7 -3.2
v 1.4 2.7 -3.3
v 1.4 2.8 -3.1
v 1.4 2.8 -3.2
v 1.4 2.8 -3.3
v 1.4 2.9 -3.1
v 1.4 2.9 -3.2
v 1.4 3.3 -1.9
v 1.4 3.3 -2.5
v 1.4 3.4 -1.9
v 1.4 3.4 -2.5
v 1.5 2.2 -2.8
v 1.5 2.2 -2.9
v 1.5 2.3 -2.8
v 1.5 2.3 -2.9
v 1.5 2.6 -3.2
v 1.5 2.6 -3.3
v 1.5 2.7 -3
v 1.5 2.7 -3.1
v 1.5 2.7 -3.2
v 1.5 2.7 -3.3
v 1.5 2.8 -3
v 1.5 2.8 -3.1
v 1.8 2.1 -2.8
v 1.8 2.1 -2.9
v 1.8 2.2 -2.8
v 1.8 2.2 -2.9
v 2 3.6 -2.1
v 2 3.6 -2.3
v 2 3.7 -2.1
v 2 3.7 -2.3
v 2.1 3.5 -2
v 2.1 3.5 -2.4
v 2.1 3.6 -2
v 2.1 3.6 -2.4
v 2.3 3.3 -2
v 2.3 3.3 -2.4
v 2.3 3.4 -2
v 2.3 3.4 -2.4
v 2.4 3 -1.9
v 2.4 3 -2.5
v 2.4 3.3 -1.9
v 2.4 3.3 -2.5
v 2.4 3.4 -1.9
v 2.4 3.4 -2.5
v 2.4 3.5 -1.9
v 2.4 3.5 -2.5
v 2.5 2.4 -1.8
v 2.5 2.4 -2.6
v 2.5 2.5 -1.8
v 2.5 2.5 -2.6
v 2.5 2.7 -1.8
v 2.5 2.7 -2.6
v 2.5 2.8 -1.8
v 2.5 2.8 -2.6
v 2.5 2.9 -1.8
v 2.5 2.9 -2.6
v 2.5 3 -1.8
v 2.5 3 -2.6
v 2.5 3.3 -1.8
v 2.5 3.3 -2.6
v 2.5 3.4 -1.8
v 2.5 3.4 -2.6
v 2.7 2.1 -1.6
v 2.7 2.1 -2.8
v 2.7 2.4 -1.6
v 2.7 2.4 -2.8
v 2.7 2.6 -1.6
v 2.7 2.6 -2.8
v 2.7 2.7 -1.6
v 2.7 2.7 -2.8
v 2.7 2.8 -1.6
v 2.7 2.8 -2.8
v 2.7 2.9 -1.6
v 2.7 2.9 -2.8
v 2.8 2.5 -1.5
v 2.8 2.5 -2.9
v 2.8 2.6 -1.5
v 2.8 2.6 -2.9
v 3.6 2.5 -0.5
v 3.6 2.5 -3.6
v 3.6 2.6 -0.5
v 3.6 2.6 -3.6
v 3.8 2.1 -0.2
v 3.8 2.1 -3.8
v 3.8 2.4 -0.2
v 3.8 2.4 -3.8
v 3.9 2.4 -0.1
v 3.9 2.4 -3.9
v 3.9 2.5 -0.1
v 3.9 2.5 -3.9
v 4 2 0
v 4 2 -4
v 4 2.1 0
v 4 2.1 -4
v 0 2 0
v 0 2.1 0
v 4 2 0
v 4 2.1 0
v 0.1 2.4 -0.1
v 0.1 2.5 -0.1
v 3.9 2.4 -0.1
v 3.9 2.5 -0.1
v 0.2 2.1 -0.2
v 0.2 2.4 -0.2
v 3.8 2.1 -0.2
v 3.8 2.4 -0.2
v 0.4 2.5 -0.5
v 0.4 2.6 -0.5
v 3.6 2.5 -0.5
v 3.6 2.6 -0.5
v 1 2.5 -1.5
v 1 2.6 -1.5
v 2.8 2.5 -1.5
v 2.8 2.6 -1.5
v 1.1 2.1 -1.6
v 1.1 2.4 -1.6
v 1.1 2.6 -1.6
v 1.1 2.7 -1.6
v 1.1 2.8 -1.6
v 1.1 2.9 -1.6
v 2.7 2.1 -1.6
v 2.7 2.4 -1.6
v 2.7 2.6 -1.6
v 2.7 2.7 -1.6
v 2.7 2.8 -1.6
v 2.7 2.9 -1.6
v 1.3 2.4 -1.8
v 1.3 2.5 -1.8
v 1.3 2.7 -1.8
v 1.3 2.8 -1.8
v 1.3 2.9 -1.8
v 1.3 3 -1.8
v 1.3 3.3 -1.8
v 1.3 3.4 -1.8
v 2.5 2.4 -1.8
v 2.5 2.5 -1.8
v 2.5 2.7 -1.8
v 2.5 2.8 -1.8
v 2.5 2.9 -1.8
v 2.5 3 -1.8
v 2.5 3.3 -1.8
v 2.5 3.4 -1.8
v 1.4 3 -1.9
v 1.4 3.3 -1.9
v 1.4 3.4 -1.9
v 1.4 3.5 -1.9
v 2.4 3 -1.9
v 2.4 3.3 -1.9
v 2.4 3.4 -1.9
v 2.4 3.5 -1.9
v 1.5 3.3 -2
v 1.5 3.4 -2
v 1.7 3.5 -2
v 1.7 3.6 -2
v 2.1 3.5 -2
v 2.1 3.6 -2
v 2.3 3.3 -2
v 2.3 3.4 -2
v 1.8 3.6 -2.1
v 1.8 3.7 -2.1
v 2 3.6 -2.1
v 2 3.7 -2.1
v 1.4 3.3 -2.5
v 1.4 3.4 -2.5
v 2.4 3.3 -2.5
v 2.4 3.4 -2.5
v 1.1 2.7 -3
v 1.1 2.8 -3
v 1.3 2.5 -3
v 1.3 2.7 -3
v 1.4 2.5 -3
v 1.4 2.7 -3
v 1.5 2.7 -3
v 1.5 2.8 -3
v 1 2.5 -3.1
v 1 2.7 -3.1
v 1.1 2.7 -3.1
v 1.2 2.8 -3.1
v 1.2 3 -3.1
v 1.3 2.5 -3.1
v 1.3 2.7 -3.1
v 1.3 2.9 -3.1
v 1.3 3 -3.1
v 1.4 2.8 -3.1
v 1.4 2.9 -3.1
v 0.9 2.1 -3.2
v 0.9 2.4 -3.2
v 1 2.1 -3.2
v 1 2.3 -3.2
v 1.1 2.4 -3.2
v 1.1 2.5 -3.2
v 1.2 2.3 -3.2
v 1.2 2.4 -3.2
v 1.3 2.4 -3.2
v 1.3 2.5 -3.2
v 1.4 2.6 -3.2
v 1.4 2.7 -3.2
v 1.5 2.6 -3.2
v 1.5 2.7 -3.2
v 0.4 2.1 -3.5
v 0.4 2.3 -3.5
v 0.5 2.3 -3.5
v 0.5 2.4 -3.5
v 0.5 2.6 -3.5
v 3.5 2.1 -3.5
v 3.5 2.4 -3.5
v 3.5 2.6 -3.5
v 0.4 2.1 -0.6
v 0.4 2.3 -0.6
v 0.5 2.3 -0.6
v 0.5 2.4 -0.6
v 0.5 2.6 -0.6
v 3.5 2.1 -0.6
v 3.5 2.4 -0.6
v 3.5 2.6 -0.6
v 1.4 3.3 -1.9
v 1.4 3.4 -1.9
v 2.4 3.3 -1.9
v 2.4 3.4 -1.9
v 1.8 3.6 -2.3
v 1.8 3.7 -2.3
v 2 3.6 -2.3
v 2 3.7 -2.3
v 1.5 3.3 -2.4
v 1.5 3.4 -2.4
v 1.7 3.5 -2.4
v 1.7 3.6 -2.4
v 2.1 3.5 -2.4
v 2.1 3.6 -2.4
v 2.3 3.3 -2.4
v 2.3 3.4 -2.4
v 1.4 3 -2.5
v 1.4 3.3 -2.5
v 1.4 3.4 -2.5
v 1.4 3.5 -2.5
v 2.4 3 -2.5
v 2.4 3.3 -2.5
v 2.4 3.4 -2.5
v 2.4 3.5 -2.5
v 1.3 2.4 -2.6
v 1.3 2.5 -2.6
v 1.3 2.7 -2.6
v 1.3 2.8 -2.6
v 1.3 2.9 -2.6
v 1.3 3 -2.6
v 1.3 3.3 -2.6
v 1.3 3.4 -2.6
v 2.5 2.4 -2.6
v 2.5 2.5 -2.6
v 2.5 2.7 -2.6
v 2.5 2.8 -2.6
v 2.5 2.9 -2.6
v 2.5 3 -2.6
v 2.5 3.3 -2.6
v 2.5 3.4 -2.6
v 1.1 2.6 -2.8
v 1.1 2.7 -2.8
v 1.1 2.8 -2.8
v 1.1 2.9 -2.8
v 1.3 2.3 -2.8
v 1.3 2.4 -2.8
v 1.5 2.2 -2.8
v 1.5 2.3 -2.8
v 1.8 2.1 -2.8
v 1.8 2.2 -2.8
v 2.7 2.1 -2.8
v 2.7 2.4 -2.8
v 2.7 2.6 -2.8
v 2.7 2.7 -2.8
v 2.7 2.8 -2.8
v 2.7 2.9 -2.8
v 1 2.5 -2.9
v 1 2.6 -2.9
v 1.1 2.1 -2.9
v 1.1 2.4 -2.9
v 1.3 2.3 -2.9
v 1.3 2.4 -2.9
v 1.5 2.2 -2.9
v 1.5 2.3 -2.9
v 1.8 2.1 -2.9
v 1.8 2.2 -2.9
v 2.8 2.5 -2.9
v 2.8 2.6 -2.9
v 1.4 2.7 -3.1
v 1.4 2.8 -3.1
v 1.5 2.7 -3.1
v 1.5 2.8 -3.1
v 1.2 2.9 -3.2
v 1.2 3 -3.2
v 1.3 2.8 -3.2
v 1.3 2.9 -3.2
v 1.3 3 -3.2
v 1.4 2.8 -3.2
v 1.4 2.9 -3.2
v 0.9 2.1 -3.3
v 0.9 2.4 -3.3
v 1 2.1 -3.3
v 1 2.3 -3.3
v 1 2.5 -3.3
v 1 2.7 -3.3
v 1.1 2.4 -3.3
v 1.1 2.5 -3.3
v 1.1 2.7 -3.3
v 1.1 2.8 -3.3
v 1.2 2.3 -3.3
v 1.2 2.4 -3.3
v 1.2 2.8 -3.3
v 1.2 2.9 -3.3
v 1.3 2.4 -3.3
v 1.3 2.5 -3.3
v 1.3 2.8 -3.3
v 1.3 2.9 -3.3
v 1.4 2.5 -3.3
v 1.4 2.6 -3.3
v 1.4 2.7 -3.3
v 1.4 2.8 -3.3
v 1.5 2.6 -3.3
v 1.5 2.7 -3.3
v 0.4 2.5 -3.6
v 0.4 2.6 -3.6
v 3.6 2.5 -3.6
v 3.6 2.6 -3.6
v 0.2 2.1 -3.8
v 0.2 2.4 -3.8
v 3.8 2.1 -3.8
v 3.8 2.4 -3.8
v 0.1 2.4 -3.9
v 0.1 2.5 -3.9
v 3.9 2.4 -3.9
v 3.9 2.5 -3.9
v 0 2 -4
v 0 2.1 -4
v 4 2 -4
v 4 2.1 -4
v 0 2 0
v 4 2 0
v 0 2 -4
v 4 2 -4
v 0.4 2.3 -0.6
v 0.5 2.3 -0.6
v 1 2.3 -3.2
v 1.2 2.3 -3.2
v 1 2.3 -3.3
v 1.2 2.3 -3.3
v 0.4 2.3 -3.5
v 0.5 2.3 -3.5
v 0.1 2.4 -0.1
v 3.9 2.4 -0.1
v 0.2 2.4 -0.2
v 3.8 2.4 -0.2
v 1.2 2.4 -3.2
v 1.3 2.4 -3.2
v 1.2 2.4 -3.3
v 1.3 2.4 -3.3
v 0.2 2.4 -3.8
v 3.8 2.4 -3.8
v 0.1 2.4 -3.9
v 3.9 2.4 -3.9
v 1 2.5 -1.5
v 2.8 2.5 -1.5
v 1.3 2.5 -1.8
v 2.5 2.5 -1.8
v 1.3 2.5 -2.6
v 2.5 2.5 -2.6
v 1 2.5 -2.9
v 2.8 2.5 -2.9
v 1.3 2.5 -3
v 1.4 2.5 -3
v 1 2.5 -3.1
v 1.3 2.5 -3.1
v 1.1 2.5 -3.2
v 1.3 2.5 -3.2
v 1 2.5 -3.3
v 1.1 2.5 -3.3
v 1.3 2.5 -3.3
v 1.4 2.5 -3.3
v 1.4 2.6 -3.2
v 1.5 2.6 -3.2
v 1.4 2.6 -3.3
v 1.5 2.6 -3.3
v 1.1 2.7 -3
v 1.3 2.7 -3
v 1.4 2.7 -3
v 1.5 2.7 -3
v 1.1 2.7 -3.1
v 1.3 2.7 -3.1
v 1.4 2.7 -3.1
v 1.5 2.7 -3.1
v 1.1 2.8 -1.6
v 2.7 2.8 -1.6
v 1.3 2.8 -1.8
v 2.5 2.8 -1.8
v 1.3 2.8 -2.6
v 2.5 2.8 -2.6
v 1.1 2.8 -2.8
v 2.7 2.8 -2.8
v 1.3 3.3 -1.8
v 2.5 3.3 -1.8
v 1.4 3.3 -1.9
v 2.4 3.3 -1.9
v 1.4 3.3 -2.5
v 2.4 3.3 -2.5
v 1.3 3.3 -2.6
v 2.5 3.3 -2.6
v 1.4 3.4 -1.9
v 2.4 3.4 -1.9
v 1.5 3.4 -2
v 2.3 3.4 -2
v 1.5 3.4 -2.4
v 2.3 3.4 -2.4
v 1.4 3.4 -2.5
v 2.4 3.4 -2.5
v 0 2.1 0
v 4 2.1 0
v 0.2 2.1 -0.2
v 3.8 2.1 -0.2
v 0.4 2.1 -0.6
v 3.5 2.1 -0.6
v 1.1 2.1 -1.6
v 2.7 2.1 -1.6
v 1.8 2.1 -2.8
v 2.7 2.1 -2.8
v 1.1 2.1 -2.9
v 1.8 2.1 -2.9
v 0.9 2.1 -3.2
v 1 2.1 -3.2
v 0.9 2.1 -3.3
v 1 2.1 -3.3
v 0.4 2.1 -3.5
v 3.5 2.1 -3.5
v 0.2 2.1 -3.8
v 3.8 2.1 -3.8
v 0 2.1 -4
v 4 2.1 -4
v 1.5 2.2 -2.8
v 1.8 2.2 -2.8
v 1.5 2.2 -2.9
v 1.8 2.2 -2.9
v 1.3 2.3 -2.8
v 1.5 2.3 -2.8
v 1.3 2.3 -2.9
v 1.5 2.3 -2.9
v 1.1 2.4 -1.6
v 2.7 2.4 -1.6
v 1.3 2.4 -1.8
v 2.5 2.4 -1.8
v 1.3 2.4 -2.6
v 2.5 2.4 -2.6
v 1.3 2.4 -2.8
v 2.7 2.4 -2.8
v 1.1 2.4 -2.9
v 1.3 2.4 -2.9
v 0.9 2.4 -3.2
v 1.1 2.4 -3.2
v 0.9 2.4 -3.3
v 1.1 2.4 -3.3
v 0.1 2.5 -0.1
v 3.9 2.5 -0.1
v 0.4 2.5 -0.5
v 3.6 2.5 -0.5
v 0.4 2.5 -3.6
v 3.6 2.5 -3.6
v 0.1 2.5 -3.9
v 3.9 2.5 -3.9
v 0.4 2.6 -0.5
v 3.6 2.6 -0.5
v 0.5 2.6 -0.6
v 3.5 2.6 -0.6
v 1 2.6 -1.5
v 2.8 2.6 -1.5
v 1.1 2.6 -1.6
v 2.7 2.6 -1.6
v 1.1 2.6 -2.8
v 2.7 2.6 -2.8
v 1 2.6 -2.9
v 2.8 2.6 -2.9
v 0.5 2.6 -3.5
v 3.5 2.6 -3.5
v 0.4 2.6 -3.6
v 3.6 2.6 -3.6
v 1.1 2.7 -1.6
v 2.7 2.7 -1.6
v 1.3 2.7 -1.8
v 2.5 2.7 -1.8
v 1.3 2.7 -2.6
v 2.5 2.7 -2.6
v 1.1 2.7 -2.8
v 2.7 2.7 -2.8
v 1 2.7 -3.1
v 1.1 2.7 -3.1
v 1.4 2.7 -3.2
v 1.5 2.7 -3.2
v 1 2.7 -3.3
v 1.1 2.7 -3.3
v 1.4 2.7 -3.3
v 1.5 2.7 -3.3
v 1.1 2.8 -3
v 1.5 2.8 -3
v 1.2 2.8 -3.1
v 1.4 2.8 -3.1
v 1.5 2.8 -3.1
v 1.3 2.8 -3.2
v 1.4 2.8 -3.2
v 1.1 2.8 -3.3
v 1.2 2.8 -3.3
v 1.3 2.8 -3.3
v 1.4 2.8 -3.3
v 1.1 2.9 -1.6
v 2.7 2.9 -1.6
v 1.3 2.9 -1.8
v 2.5 2.9 -1.8
v 1.3 2.9 -2.6
v 2.5 2.9 -2.6
v 1.1 2.9 -2.8
v 2.7 2.9 -2.8
v 1.3 2.9 -3.1
v 1.4 2.9 -3.1
v 1.2 2.9 -3.2
v 1.3 2.9 -3.2
v 1.4 2.9 -3.2
v 1.2 2.9 -3.3
v 1.3 2.9 -3.3
v 1.3 3 -1.8
v 2.5 3 -1.8
v 1.4 3 -1.9
v 2.4 3 -1.9
v 1.4 3 -2.5
v 2.4 3 -2.5
v 1.3 3 -2.6
v 2.5 3 -2.6
v 1.2 3 -3.1
v 1.3 3 -3.1
v 1.2 3 -3.2
v 1.3 3 -3.2
v 1.4 3.3 -1.9
v 2.4 3.3 -1.9
v 1.5 3.3 -2
v 2.3 3.3 -2
v 1.5 3.3 -2.4
v 2.3 3.3 -2.4
v 1.4 3.3 -2.5
v 2.4 3.3 -2.5
v 1.3 3.4 -1.8
v 2.5 3.4 -1.8
v 1.4 3.4 -1.9
v 2.4 3.4 -1.9
v 1.4 3.4 -2.5
v 2.4 3.4 -2.5
v 1.3 3.4 -2.6
v 2.5 3.4 -2.6
v 1.4 3.5 -1.9
v 2.4 3.5 -1.9
v 1.7 3.5 -2
v 2.1 3.5 -2
v 1.7 3.5 -2.4
v 2.1 3.5 -2.4
v 1.4 3.5 -2.5
v 2.4 3.5 -2.5
v 1.7 3.6 -2
v 2.1 3.6 -2
v 1.8 3.6 -2.1
v 2 3.6 -2.1
v 1.8 3.6 -2.3
v 2 3.6 -2.3
v 1.7 3.6 -2.4
v 2.1 3.6 -2.4
v 1.8 3.7 -2.1
v 2 3.7 -2.1
v 1.8 3.7 -2.3
v 2 3.7 -2.3

# faces
f 3/1/1 2/1/1 1/1/1
f 4/1/1 2/1/1 3/1/1
f 7/3/1 6/3/1 5/3/1
f 8/3/1 6/3/1 7/3/1
f 11/4/1 10/4/1 9/4/1
f 12/4/1 10/4/1 11/4/1
f 15/3/1 14/3/1 13/3/1
f 16/3/1 14/3/1 15/3/1
f 19/3/1 18/3/1 17/3/1
f 20/3/1 18/3/1 19/3/1
f 25/3/1 22/3/1 21/3/1
f 26/3/1 22/3/1 25/3/1
f 27/2/1 24/2/1 23/2/1
f 28/2/1 24/2/1 27/2/1
f 31/4/1 30/4/1 29/4/1
f 32/4/1 30/4/1 31/4/1
f 35/3/1 34/3/1 33/3/1
f 36/3/1 34/3/1 35/3/1
f 39/3/1 38/3/1 37/3/1
f 40/3/1 38/3/1 39/3/1
f 46/2/1 43/2/1 42/2/1
f 46/2/1 42/2/1 41/2/1
f 47/2/1 43/2/1 46/2/1
f 48/3/1 45/3/1 44/3/1
f 49/3/1 45/3/1 48/3/1
f 52/2/1 51/2/1 50/2/1
f 53/2/1 51/2/1 52/2/1
f 54/2/1 52/2/1 50/2/1
f 55/2/1 52/2/1 54/2/1
f 58/4/1 57/4/1 56/4/1
f 59/4/1 57/4/1 58/4/1
f 64/2/1 61/2/1 60/2/1
f 65/2/1 61/2/1 64/2/1
f 66/4/1 63/4/1 62/4/1
f 67/4/1 63/4/1 66/4/1
f 70/3/1 69/3/1 68/3/1
f 71/3/1 69/3/1 70/3/1
f 74/3/1 73/3/1 72/3/1
f 75/3/1 73/3/1 74/3/1
f 78/4/1 77/4/1 76/4/1
f 79/4/1 77/4/1 78/4/1
f 82/3/1 81/3/1 80/3/1
f 83/3/1 81/3/1 82/3/1
f 86/1/1 85/1/1 84/1/1
f 87/1/1 85/1/1 86/1/1
f 90/3/1 89/3/1 88/3/1
f 91/3/1 89/3/1 90/3/1
f 94/3/1 93/3/1 92/3/1
f 95/3/1 93/3/1 94/3/1
f 98/3/1 97/3/1 96/3/1
f 99/3/1 97/3/1 98/3/1
f 102/1/1 101/1/1 100/1/1
f 103/1/1 101/1/1 102/1/1
f 104/3/1 103/3/1 102/3/1
f 105/3/1 103/3/1 104/3/1
f 106/1/2 107/1/2 108/1/2
f 108/1/2 107/1/2 109/1/2
f 110/1/2 111/1/2 112/1/2
f 112/1/2 111/1/2 113/1/2
f 112/3/2 113/3/2 114/3/2
f 114/3/2 113/3/2 115/3/2
f 116/3/2 117/3/2 118/3/2
f 118/3/2 117/3/2 119/3/2
f 120/3/2 121/3/2 122/3/2
f 122/3/2 121/3/2 123/3/2
f 124/4/2 125/4/2 126/4/2
f 126/4/2 125/4/2 127/4/2
f 128/3/2 129/3/2 130/3/2
f 130/3/2 129/3/2 131/3/2
f 132/2/2 133/2/2 135/2/2
f 135/2/2 133/2/2 136/2/2
f 134/2/2 135/2/2 137/2/2
f 137/2/2 135/2/2 138/2/2
f 139/2/2 140/2/2 141/2/2
f 141/2/2 140/2/2 142/2/2
f 139/2/2 141/2/2 143/2/2
f 143/2/2 141/2/2 144/2/2
f 144/2/2 141/2/2 145/2/2
f 145/2/2 146/2/2 147/2/2
f 144/2/2 145/2/2 147/2/2
f 147/2/2 146/2/2 148/2/2
f 148/2/2 146/2/2 149/2/2
f 147/2/2 148/2/2 150/2/2
f 150/2/2 148/2/2 151/2/2
f 152/3/2 153/3/2 154/3/2
f 154/3/2 153/3/2 155/3/2
f 156/4/2 157/4/2 158/4/2
f 158/4/2 157/4/2 159/4/2
f 160/2/2 161/2/2 164/2/2
f 164/2/2 161/2/2 165/2/2
f 162/2/2 163/2/2 166/2/2
f 166/2/2 163/2/2 167/2/2
f 168/4/2 169/4/2 170/4/2
f 170/4/2 169/4/2 171/4/2
f 172/3/2 173/3/2 174/3/2
f 174/3/2 173/3/2 175/3/2
f 176/3/2 177/3/2 178/3/2
f 178/3/2 177/3/2 179/3/2
f 180/1/2 181/1/2 182/1/2
f 182/1/2 181/1/2 183/1/2
f 184/4/2 185/4/2 186/4/2
f 186/4/2 185/4/2 187/4/2
f 188/3/2 189/3/2 190/3/2
f 190/3/2 189/3/2 191/3/2
f 192/4/2 193/4/2 194/4/2
f 194/4/2 193/4/2 195/4/2
f 196/4/2 197/4/2 198/4/2
f 198/4/2 197/4/2 199/4/2
f 200/3/2 201/3/2 202/3/2
f 202/3/2 201/3/2 203/3/2
f 204/3/2 205/3/2 206/3/2
f 206/3/2 205/3/2 207/3/2
f 208/4/2 209/4/2 210/4/2
f 210/4/2 209/4/2 211/4/2
f 212/3/2 213/3/2 214/3/2
f 214/3/2 213/3/2 215/3/2
f 216/3/2 217/3/2 218/3/2
f 218/3/2 217/3/2 219/3/2
f 220/3/2 221/3/2 222/3/2
f 222/3/2 221/3/2 223/3/2
f 224/3/2 225/3/2 226/3/2
f 226/3/2 225/3/2 227/3/2
f 228/4/2 229/4/2 230/4/2
f 230/4/2 229/4/2 231/4/2
f 232/3/2 233/3/2 234/3/2
f 234/3/2 233/3/2 235/3/2
f 236/1/2 237/1/2 238/1/2
f 238/1/2 237/1/2 239/1/2
f 242/1/3 241/1/3 240/1/3
f 243/1/3 241/1/3 242/1/3
f 246/3/3 245/3/3 244/3/3
f 247/3/3 245/3/3 246/3/3
f 250/4/3 249/4/3 248/4/3
f 251/4/3 249/4/3 250/4/3
f 254/3/3 253/3/3 252/3/3
f 255/3/3 253/3/3 254/3/3
f 258/3/3 257/3/3 256/3/3
f 259/3/3 257/3/3 258/3/3
f 266/4/3 261/4/3 260/4/3
f 267/4/3 261/4/3 266/4/3
f 268/3/3 263/3/3 262/3/3
f 269/3/3 263/3/3 268/3/3
f 270/3/3 265/3/3 264/3/3
f 271/3/3 265/3/3 270/3/3
f 280/4/3 273/4/3 272/4/3
f 281/4/3 273/4/3 280/4/3
f 282/4/3 275/4/3 274/4/3
f 283/4/3 275/4/3 282/4/3
f 284/3/3 277/3/3 276/3/3
f 285/3/3 277/3/3 284/3/3
f 286/3/3 279/3/3 278/3/3
f 287/3/3 279/3/3 286/3/3
f 292/4/3 289/4/3 288/4/3
f 293/4/3 289/4/3 292/4/3
f 294/3/3 291/3/3 290/3/3
f 295/3/3 291/3/3 294/3/3
f 300/3/3 299/3/3 298/3/3
f 301/3/3 299/3/3 300/3/3
f 302/1/3 297/1/3 296/1/3
f 303/1/3 297/1/3 302/1/3
f 306/3/3 305/3/3 304/3/3
f 307/3/3 305/3/3 306/3/3
f 310/3/3 309/3/3 308/3/3
f 311/3/3 309/3/3 310/3/3
f 315/2/3 313/2/3 312/2/3
f 316/2/3 315/2/3 314/2/3
f 317/2/3 313/2/3 315/2/3
f 317/2/3 315/2/3 316/2/3
f 318/2/3 313/2/3 317/2/3
f 319/2/3 313/2/3 318/2/3
f 322/2/3 321/2/3 320/2/3
f 325/2/3 322/2/3 320/2/3
f 326/2/3 322/2/3 325/2/3
f 327/2/3 324/2/3 323/2/3
f 328/2/3 324/2/3 327/2/3
f 329/2/3 327/2/3 323/2/3
f 330/2/3 327/2/3 329/2/3
f 333/3/3 332/3/3 331/3/3
f 334/3/3 332/3/3 333/3/3
f 335/3/3 332/3/3 334/3/3
f 337/3/3 335/3/3 334/3/3
f 337/3/3 336/3/3 335/3/3
f 338/3/3 336/3/3 337/3/3
f 339/3/3 336/3/3 338/3/3
f 340/3/3 336/3/3 339/3/3
f 343/2/3 342/2/3 341/2/3
f 344/2/3 342/2/3 343/2/3
f 347/1/3 346/1/3 345/1/3
f 350/1/3 347/1/3 345/1/3
f 350/1/3 348/1/3 347/1/3
f 351/3/3 349/3/3 348/3/3
f 351/1/3 348/1/3 350/1/3
f 352/3/3 349/3/3 351/3/3
f 353/1/4 354/1/4 355/1/4
f 353/1/4 355/1/4 358/1/4
f 355/1/4 356/1/4 358/1/4
f 356/3/4 357/3/4 359/3/4
f 358/1/4 356/1/4 359/1/4
f 359/3/4 357/3/4 360/3/4
f 361/3/4 362/3/4 363/3/4
f 363/3/4 362/3/4 364/3/4
f 365/3/4 366/3/4 367/3/4
f 367/3/4 366/3/4 368/3/4
f 371/3/4 372/3/4 373/3/4
f 373/3/4 372/3/4 374/3/4
f 369/1/4 370/1/4 375/1/4
f 375/1/4 370/1/4 376/1/4
f 377/4/4 378/4/4 381/4/4
f 381/4/4 378/4/4 382/4/4
f 379/3/4 380/3/4 383/3/4
f 383/3/4 380/3/4 384/3/4
f 385/4/4 386/4/4 393/4/4
f 393/4/4 386/4/4 394/4/4
f 387/4/4 388/4/4 395/4/4
f 395/4/4 388/4/4 396/4/4
f 389/3/4 390/3/4 397/3/4
f 397/3/4 390/3/4 398/3/4
f 391/3/4 392/3/4 399/3/4
f 399/3/4 392/3/4 400/3/4
f 405/4/4 406/4/4 408/4/4
f 407/4/4 408/4/4 410/4/4
f 409/4/4 410/4/4 411/4/4
f 408/4/4 406/4/4 412/4/4
f 411/4/4 410/4/4 412/4/4
f 410/4/4 408/4/4 412/4/4
f 401/3/4 402/3/4 413/3/4
f 413/3/4 402/3/4 414/3/4
f 403/3/4 404/3/4 415/3/4
f 415/3/4 404/3/4 416/3/4
f 419/4/4 420/4/4 421/4/4
f 421/4/4 420/4/4 422/4/4
f 419/4/4 421/4/4 423/4/4
f 423/4/4 421/4/4 424/4/4
f 419/4/4 423/4/4 425/4/4
f 425/4/4 423/4/4 426/4/4
f 417/3/4 418/3/4 427/3/4
f 427/3/4 418/3/4 428/3/4
f 429/2/4 430/2/4 431/2/4
f 431/2/4 430/2/4 432/2/4
f 433/2/4 434/2/4 436/2/4
f 436/2/4 434/2/4 437/2/4
f 435/2/4 436/2/4 438/2/4
f 438/2/4 436/2/4 439/2/4
f 440/3/4 441/3/4 442/3/4
f 442/3/4 441/3/4 443/3/4
f 443/3/4 441/3/4 446/3/4
f 444/2/4 445/2/4 447/2/4
f 447/2/4 445/2/4 448/2/4
f 443/3/4 446/3/4 450/3/4
f 446/3/4 447/3/4 450/3/4
f 450/3/4 447/3/4 451/3/4
f 448/2/4 449/2/4 452/2/4
f 447/2/4 448/2/4 452/2/4
f 451/3/4 447/3/4 454/3/4
f 452/2/4 453/2/4 455/2/4
f 454/3/4 447/3/4 455/3/4
f 447/2/4 452/2/4 455/2/4
f 455/2/4 453/2/4 456/2/4
f 456/2/4 453/2/4 457/2/4
f 455/2/4 456/2/4 458/2/4
f 458/2/4 456/2/4 459/2/4
f 459/2/4 456/2/4 460/2/4
f 460/2/4 456/2/4 461/2/4
f 459/2/4 460/2/4 462/2/4
f 462/2/4 460/2/4 463/2/4
f 464/3/4 465/3/4 466/3/4
f 466/3/4 465/3/4 467/3/4
f 468/4/4 469/4/4 470/4/4
f 470/4/4 469/4/4 471/4/4
f 472/3/4 473/3/4 474/3/4
f 474/3/4 473/3/4 475/3/4
f 476/1/4 477/1/4 478/1/4
f 478/1/4 477/1/4 479/1/4
f 482/1/5 481/1/5 480/1/5
f 483/1/5 481/1/5 482/1/5
f 488/3/5 487/3/5 486/3/5
f 489/3/5 487/3/5 488/3/5
f 490/1/5 485/1/5 484/1/5
f 491/1/5 485/1/5 490/1/5
f 494/3/5 493/3/5 492/3/5
f 495/3/5 493/3/5 494/3/5
f 498/3/5 497/3/5 496/3/5
f 499/3/5 497/3/5 498/3/5
f 500/3/5 494/3/5 492/3/5
f 501/3/5 493/3/5 495/3/5
f 502/3/5 500/3/5 492/3/5
f 502/3/5 501/3/5 500/3/5
f 503/3/5 493/3/5 501/3/5
f 503/3/5 501/3/5 502/3/5
f 506/3/5 505/3/5 504/3/5
f 507/3/5 505/3/5 506/3/5
f 508/3/5 506/3/5 504/3/5
f 509/3/5 505/3/5 507/3/5
f 510/3/5 508/3/5 504/3/5
f 510/3/5 509/3/5 508/3/5
f 511/3/5 505/3/5 509/3/5
f 511/3/5 509/3/5 510/3/5
f 515/2/5 513/2/5 512/2/5
f 516/2/5 515/2/5 514/2/5
f 517/2/5 513/2/5 515/2/5
f 517/2/5 515/2/5 516/2/5
f 518/2/5 516/2/5 514/2/5
f 519/2/5 516/2/5 518/2/5
f 520/2/5 513/2/5 517/2/5
f 521/2/5 513/2/5 520/2/5
f 524/2/5 523/2/5 522/2/5
f 525/2/5 523/2/5 524/2/5
f 530/2/5 527/2/5 526/2/5
f 531/2/5 527/2/5 530/2/5
f 532/2/5 529/2/5 528/2/5
f 533/2/5 529/2/5 532/2/5
f 536/3/5 535/3/5 534/3/5
f 537/3/5 535/3/5 536/3/5
f 538/3/5 536/3/5 534/3/5
f 539/3/5 535/3/5 537/3/5
f 540/3/5 538/3/5 534/3/5
f 540/3/5 539/3/5 538/3/5
f 541/3/5 535/3/5 539/3/5
f 541/3/5 539/3/5 540/3/5
f 544/3/5 543/3/5 542/3/5
f 545/3/5 543/3/5 544/3/5
f 546/3/5 544/3/5 542/3/5
f 547/3/5 543/3/5 545/3/5
f 548/3/5 546/3/5 542/3/5
f 548/3/5 547/3/5 546/3/5
f 549/3/5 543/3/5 547/3/5
f 549/3/5 547/3/5 548/3/5
f 552/3/5 551/3/5 550/3/5
f 553/3/5 551/3/5 552/3/5
f 554/3/5 552/3/5 550/3/5
f 555/3/5 551/3/5 553/3/5
f 556/3/5 554/3/5 550/3/5
f 556/3/5 555/3/5 554/3/5
f 557/3/5 551/3/5 555/3/5
f 557/3/5 555/3/5 556/3/5
f 558/1/6 559/1/6 560/1/6
f 560/1/6 559/1/6 561/1/6
f 562/1/6 563/1/6 564/1/6
f 564/1/6 563/1/6 565/1/6
f 565/1/6 563/1/6 567/1/6
f 562/1/6 564/1/6 568/1/6
f 566/1/6 567/1/6 569/1/6
f 562/1/6 568/1/6 570/1/6
f 568/1/6 569/1/6 570/1/6
f 570/1/6 569/1/6 571/1/6
f 562/1/6 570/1/6 572/1/6
f 571/1/6 569/1/6 573/1/6
f 562/1/6 572/1/6 574/1/6
f 572/1/6 573/1/6 574/1/6
f 569/1/6 567/1/6 575/1/6
f 574/1/6 573/1/6 575/1/6
f 567/1/6 563/1/6 575/1/6
f 573/1/6 569/1/6 575/1/6
f 558/1/6 560/1/6 576/1/6
f 561/1/6 559/1/6 577/1/6
f 558/1/6 576/1/6 578/1/6
f 576/1/6 577/1/6 578/1/6
f 577/1/6 559/1/6 579/1/6
f 578/1/6 577/1/6 579/1/6
f 580/4/6 581/4/6 582/4/6
f 582/4/6 581/4/6 583/4/6
f 584/4/6 585/4/6 586/4/6
f 586/4/6 585/4/6 587/4/6
f 588/4/6 589/4/6 590/4/6
f 590/4/6 589/4/6 591/4/6
f 588/4/6 590/4/6 592/4/6
f 591/4/6 589/4/6 593/4/6
f 588/4/6 592/4/6 594/4/6
f 592/4/6 593/4/6 594/4/6
f 593/4/6 589/4/6 595/4/6
f 594/4/6 593/4/6 595/4/6
f 588/4/6 594/4/6 596/4/6
f 596/4/6 594/4/6 597/4/6
f 598/3/6 599/3/6 600/3/6
f 600/3/6 599/3/6 601/3/6
f 602/3/6 603/3/6 604/3/6
f 604/3/6 603/3/6 605/3/6
f 602/3/6 604/3/6 606/3/6
f 605/3/6 603/3/6 607/3/6
f 602/3/6 606/3/6 608/3/6
f 606/3/6 607/3/6 608/3/6
f 607/3/6 603/3/6 609/3/6
f 608/3/6 607/3/6 609/3/6
f 610/3/6 611/3/6 612/3/6
f 612/3/6 611/3/6 613/3/6
f 614/3/6 615/3/6 616/3/6
f 616/3/6 615/3/6 617/3/6
f 614/3/6 616/3/6 618/3/6
f 617/3/6 615/3/6 619/3/6
f 614/3/6 618/3/6 620/3/6
f 618/3/6 619/3/6 620/3/6
f 619/3/6 615/3/6 621/3/6
f 620/3/6 619/3/6 621/3/6
f 610/3/6 612/3/6 622/3/6
f 613/3/6 611/3/6 623/3/6
f 610/3/6 622/3/6 624/3/6
f 622/3/6 623/3/6 624/3/6
f 623/3/6 611/3/6 625/3/6
f 624/3/6 623/3/6 625/3/6
f 626/3/6 627/3/6 628/3/6
f 628/3/6 627/3/6 629/3/6
f 626/3/6 628/3/6 630/3/6
f 629/3/6 627/3/6 631/3/6
f 626/3/6 630/3/6 632/3/6
f 630/3/6 631/3/6 632/3/6
f 631/3/6 627/3/6 633/3/6
f 632/3/6 631/3/6 633/3/6
f 634/2/6 635/2/6 638/2/6
f 638/2/6 635/2/6 639/2/6
f 636/2/6 637/2/6 640/2/6
f 640/2/6 637/2/6 641/2/6
f 642/2/6 643/2/6 644/2/6
f 644/2/6 643/2/6 645/2/6
f 645/2/6 643/2/6 646/2/6
f 642/2/6 644/2/6 649/2/6
f 649/2/6 644/2/6 650/2/6
f 647/2/6 648/2/6 651/2/6
f 651/2/6 648/2/6 652/2/6
f 653/3/6 654/3/6 655/3/6
f 655/3/6 654/3/6 656/3/6
f 653/3/6 655/3/6 657/3/6
f 656/3/6 654/3/6 658/3/6
f 653/3/6 657/3/6 659/3/6
f 657/3/6 658/3/6 659/3/6
f 658/3/6 654/3/6 660/3/6
f 659/3/6 658/3/6 660/3/6
f 661/2/6 662/2/6 664/2/6
f 664/2/6 662/2/6 665/2/6
f 663/2/6 664/2/6 666/2/6
f 666/2/6 664/2/6 667/2/6
f 668/3/6 669/3/6 670/3/6
f 670/3/6 669/3/6 671/3/6
f 668/3/6 670/3/6 672/3/6
f 671/3/6 669/3/6 673/3/6
f 668/3/6 672/3/6 674/3/6
f 672/3/6 673/3/6 674/3/6
f 673/3/6 669/3/6 675/3/6
f 674/3/6 673/3/6 675/3/6
f 676/2/6 677/2/6 678/2/6
f 678/2/6 677/2/6 679/2/6
f 680/4/6 681/4/6 682/4/6
f 682/4/6 681/4/6 683/4/6
f 680/4/6 682/4/6 684/4/6
f 683/4/6 681/4/6 685/4/6
f 680/4/6 684/4/6 686/4/6
f 684/4/6 685/4/6 686/4/6
f 685/4/6 681/4/6 687/4/6
f 686/4/6 685/4/6 687/4/6
f 688/3/6 689/3/6 690/3/6
f 690/3/6 689/3/6 691/3/6
f 688/3/6 690/3/6 692/3/6
f 691/3/6 689/3/6 693/3/6
f 688/3/6 692/3/6 694/3/6
f 692/3/6 693/3/6 694/3/6
f 693/3/6 689/3/6 695/3/6
f 694/3/6 693/3/6 695/3/6
f 696/3/6 697/3/6 698/3/6
f 698/3/6 697/3/6 699/3/6
f 696/3/6 698/3/6 700/3/6
f 699/3/6 697/3/6 701/3/6
f 696/3/6 700/3/6 702/3/6
f 700/3/6 701/3/6 702/3/6
f 701/3/6 697/3/6 703/3/6
f 702/3/6 701/3/6 703/3/6
f 704/3/6 705/3/6 706/3/6
f 706/3/6 705/3/6 707/3/6
f 704/3/6 706/3/6 708/3/6
f 707/3/6 705/3/6 709/3/6
f 704/3/6 708/3/6 710/3/6
f 708/3/6 709/3/6 710/3/6
f 709/3/6 705/3/6 711/3/6
f 710/3/6 709/3/6 711/3/6
f 712/3/6 713/3/6 714/3/6
f 714/3/6 713/3/6 715/3/6
